^C:\COCOS2D-X\PROJECTS\BONUSWHEEL2\PROJ.WIN32\MAIN.CPP
/c /I"C:\COCOS2D-X\PROJECTS\BONUSWHEEL2\COCOS2D\COCOS\2D\..\..\\" /I"C:\COCOS2D-X\PROJECTS\BONUSWHEEL2\COCOS2D\COCOS\2D\..\..\EXTERNAL" /I"C:\COCOS2D-X\PROJECTS\BONUSWHEEL2\COCOS2D\COCOS\2D\..\..\COCOS\AUDIO\INCLUDE" /I"C:\COCOS2D-X\PROJECTS\BONUSWHEEL2\COCOS2D\COCOS\2D\..\..\EXTERNAL\CHIPMUNK\INCLUDE\CHIPMUNK" /I"C:\COCOS2D-X\PROJECTS\BONUSWHEEL2\COCOS2D\COCOS\2D\..\..\EXTENSIONS" /I..\CLASSES /I.. /I"C:\COCOS2D-X\PROJECTS\BONUSWHEEL2\COCOS2D\COCOS\2D\..\..\COCOS" /I"C:\COCOS2D-X\PROJECTS\BONUSWHEEL2\COCOS2D\COCOS\2D\..\..\COCOS/EDITOR-SUPPORT" /I"C:\COCOS2D-X\PROJECTS\BONUSWHEEL2\COCOS2D\COCOS\2D\..\..\EXTERNAL\GLFW3\INCLUDE\WIN32" /I"C:\COCOS2D-X\PROJECTS\BONUSWHEEL2\COCOS2D\COCOS\2D\..\..\EXTERNAL\WIN32-SPECIFIC\GLES\INCLUDE\OGLES" /I"C:\COCOS2D-X\PROJECTS\BONUSWHEEL2\COCOS2D\COCOS\2D\..\..\EXTERNAL\FREETYPE2\INCLUDE\WIN32\FREETYPE2" /I"C:\COCOS2D-X\PROJECTS\BONUSWHEEL2\COCOS2D\COCOS\2D\..\..\EXTERNAL\FREETYPE2\INCLUDE\WIN32\\" /I"C:\COCOS2D-X\PROJECTS\BONUSWHEEL2\COCOS2D\COCOS\2D\..\..\EXTERNAL" /I"C:\COCOS2D-X\PROJECTS\BONUSWHEEL2\COCOS2D\COCOS\2D\..\..\EXTERNAL\OPENSSL\INCLUDE\WIN32" /ZI /nologo /W3 /WX- /diagnostics:classic /Od /Oy- /D WIN32 /D _DEBUG /D _WINDOWS /D _USE_MATH_DEFINES /D GL_GLEXT_PROTOTYPES /D CC_ENABLE_CHIPMUNK_INTEGRATION=1 /D COCOS2D_DEBUG=1 /D _CRT_SECURE_NO_WARNINGS /D _SCL_SECURE_NO_WARNINGS /D _VARIADIC_MAX=10 /D _UNICODE /D UNICODE /Gm- /EHsc /RTC1 /MDd /GS /fp:precise /Zc:wchar_t /Zc:forScope /Zc:inline /Fo"DEBUG.WIN32\\" /Fd"DEBUG.WIN32\VC141.PDB" /Gd /TP /wd4267 /wd4251 /wd4244 /analyze- /FC C:\COCOS2D-X\PROJECTS\BONUSWHEEL2\PROJ.WIN32\MAIN.CPP
^C:\COCOS2D-X\PROJECTS\BONUSWHEEL2\CLASSES\APPDELEGATE.CPP
/c /I"C:\COCOS2D-X\PROJECTS\BONUSWHEEL2\COCOS2D\COCOS\2D\..\..\\" /I"C:\COCOS2D-X\PROJECTS\BONUSWHEEL2\COCOS2D\COCOS\2D\..\..\EXTERNAL" /I"C:\COCOS2D-X\PROJECTS\BONUSWHEEL2\COCOS2D\COCOS\2D\..\..\COCOS\AUDIO\INCLUDE" /I"C:\COCOS2D-X\PROJECTS\BONUSWHEEL2\COCOS2D\COCOS\2D\..\..\EXTERNAL\CHIPMUNK\INCLUDE\CHIPMUNK" /I"C:\COCOS2D-X\PROJECTS\BONUSWHEEL2\COCOS2D\COCOS\2D\..\..\EXTENSIONS" /I..\CLASSES /I.. /I"C:\COCOS2D-X\PROJECTS\BONUSWHEEL2\COCOS2D\COCOS\2D\..\..\COCOS" /I"C:\COCOS2D-X\PROJECTS\BONUSWHEEL2\COCOS2D\COCOS\2D\..\..\COCOS/EDITOR-SUPPORT" /I"C:\COCOS2D-X\PROJECTS\BONUSWHEEL2\COCOS2D\COCOS\2D\..\..\EXTERNAL\GLFW3\INCLUDE\WIN32" /I"C:\COCOS2D-X\PROJECTS\BONUSWHEEL2\COCOS2D\COCOS\2D\..\..\EXTERNAL\WIN32-SPECIFIC\GLES\INCLUDE\OGLES" /I"C:\COCOS2D-X\PROJECTS\BONUSWHEEL2\COCOS2D\COCOS\2D\..\..\EXTERNAL\FREETYPE2\INCLUDE\WIN32\FREETYPE2" /I"C:\COCOS2D-X\PROJECTS\BONUSWHEEL2\COCOS2D\COCOS\2D\..\..\EXTERNAL\FREETYPE2\INCLUDE\WIN32\\" /I"C:\COCOS2D-X\PROJECTS\BONUSWHEEL2\COCOS2D\COCOS\2D\..\..\EXTERNAL" /I"C:\COCOS2D-X\PROJECTS\BONUSWHEEL2\COCOS2D\COCOS\2D\..\..\EXTERNAL\OPENSSL\INCLUDE\WIN32" /ZI /nologo /W3 /WX- /diagnostics:classic /Od /Oy- /D WIN32 /D _DEBUG /D _WINDOWS /D _USE_MATH_DEFINES /D GL_GLEXT_PROTOTYPES /D CC_ENABLE_CHIPMUNK_INTEGRATION=1 /D COCOS2D_DEBUG=1 /D _CRT_SECURE_NO_WARNINGS /D _SCL_SECURE_NO_WARNINGS /D _VARIADIC_MAX=10 /D _UNICODE /D UNICODE /Gm- /EHsc /RTC1 /MDd /GS /fp:precise /Zc:wchar_t /Zc:forScope /Zc:inline /Fo"DEBUG.WIN32\\" /Fd"DEBUG.WIN32\VC141.PDB" /Gd /TP /wd4267 /wd4251 /wd4244 /analyze- /FC C:\COCOS2D-X\PROJECTS\BONUSWHEEL2\CLASSES\APPDELEGATE.CPP
^C:\COCOS2D-X\PROJECTS\BONUSWHEEL2\CLASSES\HELLOWORLDSCENE.CPP
/c /I"C:\COCOS2D-X\PROJECTS\BONUSWHEEL2\COCOS2D\COCOS\2D\..\..\\" /I"C:\COCOS2D-X\PROJECTS\BONUSWHEEL2\COCOS2D\COCOS\2D\..\..\EXTERNAL" /I"C:\COCOS2D-X\PROJECTS\BONUSWHEEL2\COCOS2D\COCOS\2D\..\..\COCOS\AUDIO\INCLUDE" /I"C:\COCOS2D-X\PROJECTS\BONUSWHEEL2\COCOS2D\COCOS\2D\..\..\EXTERNAL\CHIPMUNK\INCLUDE\CHIPMUNK" /I"C:\COCOS2D-X\PROJECTS\BONUSWHEEL2\COCOS2D\COCOS\2D\..\..\EXTENSIONS" /I..\CLASSES /I.. /I"C:\COCOS2D-X\PROJECTS\BONUSWHEEL2\COCOS2D\COCOS\2D\..\..\COCOS" /I"C:\COCOS2D-X\PROJECTS\BONUSWHEEL2\COCOS2D\COCOS\2D\..\..\COCOS/EDITOR-SUPPORT" /I"C:\COCOS2D-X\PROJECTS\BONUSWHEEL2\COCOS2D\COCOS\2D\..\..\EXTERNAL\GLFW3\INCLUDE\WIN32" /I"C:\COCOS2D-X\PROJECTS\BONUSWHEEL2\COCOS2D\COCOS\2D\..\..\EXTERNAL\WIN32-SPECIFIC\GLES\INCLUDE\OGLES" /I"C:\COCOS2D-X\PROJECTS\BONUSWHEEL2\COCOS2D\COCOS\2D\..\..\EXTERNAL\FREETYPE2\INCLUDE\WIN32\FREETYPE2" /I"C:\COCOS2D-X\PROJECTS\BONUSWHEEL2\COCOS2D\COCOS\2D\..\..\EXTERNAL\FREETYPE2\INCLUDE\WIN32\\" /I"C:\COCOS2D-X\PROJECTS\BONUSWHEEL2\COCOS2D\COCOS\2D\..\..\EXTERNAL" /I"C:\COCOS2D-X\PROJECTS\BONUSWHEEL2\COCOS2D\COCOS\2D\..\..\EXTERNAL\OPENSSL\INCLUDE\WIN32" /ZI /nologo /W3 /WX- /diagnostics:classic /Od /Oy- /D WIN32 /D _DEBUG /D _WINDOWS /D _USE_MATH_DEFINES /D GL_GLEXT_PROTOTYPES /D CC_ENABLE_CHIPMUNK_INTEGRATION=1 /D COCOS2D_DEBUG=1 /D _CRT_SECURE_NO_WARNINGS /D _SCL_SECURE_NO_WARNINGS /D _VARIADIC_MAX=10 /D _UNICODE /D UNICODE /Gm- /EHsc /RTC1 /MDd /GS /fp:precise /Zc:wchar_t /Zc:forScope /Zc:inline /Fo"DEBUG.WIN32\\" /Fd"DEBUG.WIN32\VC141.PDB" /Gd /TP /wd4267 /wd4251 /wd4244 /analyze- /FC C:\COCOS2D-X\PROJECTS\BONUSWHEEL2\CLASSES\HELLOWORLDSCENE.CPP
^C:\COCOS2D-X\PROJECTS\BONUSWHEEL2\PROJ.WIN32\ITEM.CPP
/c /I"C:\COCOS2D-X\PROJECTS\BONUSWHEEL2\COCOS2D\COCOS\2D\..\..\\" /I"C:\COCOS2D-X\PROJECTS\BONUSWHEEL2\COCOS2D\COCOS\2D\..\..\EXTERNAL" /I"C:\COCOS2D-X\PROJECTS\BONUSWHEEL2\COCOS2D\COCOS\2D\..\..\COCOS\AUDIO\INCLUDE" /I"C:\COCOS2D-X\PROJECTS\BONUSWHEEL2\COCOS2D\COCOS\2D\..\..\EXTERNAL\CHIPMUNK\INCLUDE\CHIPMUNK" /I"C:\COCOS2D-X\PROJECTS\BONUSWHEEL2\COCOS2D\COCOS\2D\..\..\EXTENSIONS" /I..\CLASSES /I.. /I"C:\COCOS2D-X\PROJECTS\BONUSWHEEL2\COCOS2D\COCOS\2D\..\..\COCOS" /I"C:\COCOS2D-X\PROJECTS\BONUSWHEEL2\COCOS2D\COCOS\2D\..\..\COCOS/EDITOR-SUPPORT" /I"C:\COCOS2D-X\PROJECTS\BONUSWHEEL2\COCOS2D\COCOS\2D\..\..\EXTERNAL\GLFW3\INCLUDE\WIN32" /I"C:\COCOS2D-X\PROJECTS\BONUSWHEEL2\COCOS2D\COCOS\2D\..\..\EXTERNAL\WIN32-SPECIFIC\GLES\INCLUDE\OGLES" /I"C:\COCOS2D-X\PROJECTS\BONUSWHEEL2\COCOS2D\COCOS\2D\..\..\EXTERNAL\FREETYPE2\INCLUDE\WIN32\FREETYPE2" /I"C:\COCOS2D-X\PROJECTS\BONUSWHEEL2\COCOS2D\COCOS\2D\..\..\EXTERNAL\FREETYPE2\INCLUDE\WIN32\\" /I"C:\COCOS2D-X\PROJECTS\BONUSWHEEL2\COCOS2D\COCOS\2D\..\..\EXTERNAL" /I"C:\COCOS2D-X\PROJECTS\BONUSWHEEL2\COCOS2D\COCOS\2D\..\..\EXTERNAL\OPENSSL\INCLUDE\WIN32" /ZI /nologo /W3 /WX- /diagnostics:classic /Od /Oy- /D WIN32 /D _DEBUG /D _WINDOWS /D _USE_MATH_DEFINES /D GL_GLEXT_PROTOTYPES /D CC_ENABLE_CHIPMUNK_INTEGRATION=1 /D COCOS2D_DEBUG=1 /D _CRT_SECURE_NO_WARNINGS /D _SCL_SECURE_NO_WARNINGS /D _VARIADIC_MAX=10 /D _UNICODE /D UNICODE /Gm- /EHsc /RTC1 /MDd /GS /fp:precise /Zc:wchar_t /Zc:forScope /Zc:inline /Fo"DEBUG.WIN32\\" /Fd"DEBUG.WIN32\VC141.PDB" /Gd /TP /wd4267 /wd4251 /wd4244 /analyze- /FC C:\COCOS2D-X\PROJECTS\BONUSWHEEL2\PROJ.WIN32\ITEM.CPP
^C:\COCOS2D-X\PROJECTS\BONUSWHEEL2\PROJ.WIN32\WHEEL.CPP
/c /I"C:\COCOS2D-X\PROJECTS\BONUSWHEEL2\COCOS2D\COCOS\2D\..\..\\" /I"C:\COCOS2D-X\PROJECTS\BONUSWHEEL2\COCOS2D\COCOS\2D\..\..\EXTERNAL" /I"C:\COCOS2D-X\PROJECTS\BONUSWHEEL2\COCOS2D\COCOS\2D\..\..\COCOS\AUDIO\INCLUDE" /I"C:\COCOS2D-X\PROJECTS\BONUSWHEEL2\COCOS2D\COCOS\2D\..\..\EXTERNAL\CHIPMUNK\INCLUDE\CHIPMUNK" /I"C:\COCOS2D-X\PROJECTS\BONUSWHEEL2\COCOS2D\COCOS\2D\..\..\EXTENSIONS" /I..\CLASSES /I.. /I"C:\COCOS2D-X\PROJECTS\BONUSWHEEL2\COCOS2D\COCOS\2D\..\..\COCOS" /I"C:\COCOS2D-X\PROJECTS\BONUSWHEEL2\COCOS2D\COCOS\2D\..\..\COCOS/EDITOR-SUPPORT" /I"C:\COCOS2D-X\PROJECTS\BONUSWHEEL2\COCOS2D\COCOS\2D\..\..\EXTERNAL\GLFW3\INCLUDE\WIN32" /I"C:\COCOS2D-X\PROJECTS\BONUSWHEEL2\COCOS2D\COCOS\2D\..\..\EXTERNAL\WIN32-SPECIFIC\GLES\INCLUDE\OGLES" /I"C:\COCOS2D-X\PROJECTS\BONUSWHEEL2\COCOS2D\COCOS\2D\..\..\EXTERNAL\FREETYPE2\INCLUDE\WIN32\FREETYPE2" /I"C:\COCOS2D-X\PROJECTS\BONUSWHEEL2\COCOS2D\COCOS\2D\..\..\EXTERNAL\FREETYPE2\INCLUDE\WIN32\\" /I"C:\COCOS2D-X\PROJECTS\BONUSWHEEL2\COCOS2D\COCOS\2D\..\..\EXTERNAL" /I"C:\COCOS2D-X\PROJECTS\BONUSWHEEL2\COCOS2D\COCOS\2D\..\..\EXTERNAL\OPENSSL\INCLUDE\WIN32" /ZI /nologo /W3 /WX- /diagnostics:classic /Od /Oy- /D WIN32 /D _DEBUG /D _WINDOWS /D _USE_MATH_DEFINES /D GL_GLEXT_PROTOTYPES /D CC_ENABLE_CHIPMUNK_INTEGRATION=1 /D COCOS2D_DEBUG=1 /D _CRT_SECURE_NO_WARNINGS /D _SCL_SECURE_NO_WARNINGS /D _VARIADIC_MAX=10 /D _UNICODE /D UNICODE /Gm- /EHsc /RTC1 /MDd /GS /fp:precise /Zc:wchar_t /Zc:forScope /Zc:inline /Fo"DEBUG.WIN32\\" /Fd"DEBUG.WIN32\VC141.PDB" /Gd /TP /wd4267 /wd4251 /wd4244 /analyze- /FC C:\COCOS2D-X\PROJECTS\BONUSWHEEL2\PROJ.WIN32\WHEEL.CPP
